Capstone Project - Progress Report
…
## # A tibble: 86,790 x 6
##    word     source  count       tf   idf   tf_idf
##    <chr>    <chr>   <int>    <dbl> <dbl>    <dbl>
##  1 rt       twitter   898 0.00306  0.405 0.00124 
##  2 lol      twitter   702 0.00239  0.405 0.000970
##  3 congrats twitter   105 0.000358 1.10  0.000393
##  4 haha     twitter   235 0.000801 0.405 0.000325
##  5 dm       twitter    57 0.000194 1.10  0.000213
##  6 ppl      twitter    57 0.000194 1.10  0.000213
##  7 ur       twitter   153 0.000522 0.405 0.000211
##  8 wanna    twitter   150 0.000511 0.405 0.000207
##  9 thx      twitter    48 0.000164 1.10  0.000180
## 10 omg      twitter   116 0.000395 0.405 0.000160
## # ... with 86,780 more rows
…
